<?xml version="1.0" encoding="UTF-8" standalone="no"?>
<!-- Created with Inkscape (http://www.inkscape.org/) -->

<svg
   xmlns:dc="http://purl.org/dc/elements/1.1/"
   xmlns:cc="http://creativecommons.org/ns#"
   xmlns:rdf="http://www.w3.org/1999/02/22-rdf-syntax-ns#"
   xmlns:svg="http://www.w3.org/2000/svg"
   xmlns="http://www.w3.org/2000/svg"
   xmlns:xlink="http://www.w3.org/1999/xlink"
   xmlns:sodipodi="http://sodipodi.sourceforge.net/DTD/sodipodi-0.dtd"
   xmlns:inkscape="http://www.inkscape.org/namespaces/inkscape"
   width="149.53571mm"
   height="149.53571mm"
   viewBox="0 0 149.53571 149.53571"
   version="1.1"
   id="svg8"
   inkscape:version="0.92.4 5da689c313, 2019-01-14"
   sodipodi:docname="mxerlangen_embedded_font.svg">
  <defs
     id="defs2">
    <linearGradient
       inkscape:collect="always"
       id="linearGradient961">
      <stop
         style="stop-color:#8482c6;stop-opacity:1"
         offset="0"
         id="stop957" />
      <stop
         id="stop975"
         offset="0.7604422"
         style="stop-color:#8d60c3;stop-opacity:1;" />
      <stop
         style="stop-color:#963ec1;stop-opacity:1"
         offset="1"
         id="stop959" />
    </linearGradient>
    <linearGradient
       inkscape:collect="always"
       xlink:href="#linearGradient961"
       id="linearGradient963"
       x1="43.117004"
       y1="163.24092"
       x2="138.52345"
       y2="266.53665"
       gradientUnits="userSpaceOnUse" />
  </defs>
  <sodipodi:namedview
     id="base"
     pagecolor="#ffffff"
     bordercolor="#666666"
     borderopacity="1.0"
     inkscape:pageopacity="0.0"
     inkscape:pageshadow="2"
     inkscape:zoom="1.4"
     inkscape:cx="443.34087"
     inkscape:cy="268.30792"
     inkscape:document-units="mm"
     inkscape:current-layer="layer1"
     showgrid="false"
     inkscape:snap-text-baseline="true"
     inkscape:snap-grids="false"
     inkscape:snap-to-guides="true"
     inkscape:snap-others="false"
     inkscape:snap-global="false"
     inkscape:window-width="1920"
     inkscape:window-height="1054"
     inkscape:window-x="0"
     inkscape:window-y="26"
     inkscape:window-maximized="1"
     showguides="false"
     fit-margin-top="0"
     fit-margin-left="0"
     fit-margin-right="0"
     fit-margin-bottom="0" />
  <metadata
     id="metadata5">
    <rdf:RDF>
      <cc:Work
         rdf:about="">
        <dc:format>image/svg+xml</dc:format>
        <dc:type
           rdf:resource="http://purl.org/dc/dcmitype/StillImage" />
        <dc:title></dc:title>
      </cc:Work>
    </rdf:RDF>
  </metadata>
  <g
     inkscape:label="Layer 1"
     inkscape:groupmode="layer"
     id="layer1"
     transform="translate(-18.241939,-139.41085)">
    <circle
       style="opacity:1;fill:url(#linearGradient963);fill-opacity:1;stroke:#3f195d;stroke-width:3.07200003;stroke-linecap:round;stroke-miterlimit:4;stroke-dasharray:none;stroke-opacity:1"
       id="path970"
       r="73.23185"
       cy="214.1787"
       cx="93.009789" />
    <g
       id="g912">
      <g
         id="g4784-1"
         transform="translate(18.976144,111.25572)">
        <rect
           style="opacity:1;fill:#ffffff;fill-opacity:1;stroke:none;stroke-width:0.528;stroke-linecap:round;stroke-miterlimit:4;stroke-dasharray:none;stroke-opacity:1"
           id="rect815-8"
           width="13.898015"
           height="13.898015"
           x="51.279476"
           y="86.792503" />
        <rect
           style="opacity:1;fill:#ffffff;fill-opacity:1;stroke:none;stroke-width:0.528;stroke-linecap:round;stroke-miterlimit:4;stroke-dasharray:none;stroke-opacity:1"
           id="rect821-7"
           width="13.898015"
           height="13.898015"
           x="98.694962"
           y="69.820885" />
        <rect
           style="opacity:1;fill:#ffffff;fill-opacity:1;stroke:none;stroke-width:0.528;stroke-linecap:round;stroke-miterlimit:4;stroke-dasharray:none;stroke-opacity:1"
           id="rect825-4"
           width="13.898015"
           height="13.898015"
           x="67.084641"
           y="69.820885" />
        <rect
           style="opacity:1;fill:#ffffff;fill-opacity:1;stroke:none;stroke-width:0.528;stroke-linecap:round;stroke-miterlimit:4;stroke-dasharray:none;stroke-opacity:1"
           id="rect815-7-1"
           width="13.898015"
           height="13.898015"
           x="35.474312"
           y="69.820885" />
        <rect
           y="103.76413"
           x="82.889793"
           height="13.898015"
           width="13.898015"
           id="rect819-9-6"
           style="opacity:1;fill:#ffffff;fill-opacity:1;stroke:none;stroke-width:0.528;stroke-linecap:round;stroke-miterlimit:4;stroke-dasharray:none;stroke-opacity:1" />
        <rect
           y="69.820885"
           x="82.889801"
           height="13.898015"
           width="13.898015"
           id="rect823-3-3"
           style="opacity:1;fill:#ffffff;fill-opacity:1;stroke:none;stroke-width:0.528;stroke-linecap:round;stroke-miterlimit:4;stroke-dasharray:none;stroke-opacity:1" />
        <rect
           style="opacity:1;fill:#ffffff;fill-opacity:1;stroke:none;stroke-width:0.528;stroke-linecap:round;stroke-miterlimit:4;stroke-dasharray:none;stroke-opacity:1"
           id="rect825-3-8"
           width="13.898015"
           height="13.898015"
           x="67.084641"
           y="103.76413" />
        <rect
           style="opacity:1;fill:#ffffff;fill-opacity:1;stroke:none;stroke-width:0.528;stroke-linecap:round;stroke-miterlimit:4;stroke-dasharray:none;stroke-opacity:1"
           id="rect815-3-5"
           width="13.898015"
           height="13.898015"
           x="51.279476"
           y="103.76413" />
        <rect
           y="69.820885"
           x="51.279476"
           height="13.898015"
           width="13.898015"
           id="rect823-2-5"
           style="opacity:1;fill:#ffffff;fill-opacity:1;stroke:none;stroke-width:0.528;stroke-linecap:round;stroke-miterlimit:4;stroke-dasharray:none;stroke-opacity:1" />
        <rect
           style="opacity:1;fill:#ffffff;fill-opacity:1;stroke:none;stroke-width:0.528;stroke-linecap:round;stroke-miterlimit:4;stroke-dasharray:none;stroke-opacity:1"
           id="rect825-6-0"
           width="13.898015"
           height="13.898015"
           x="35.474312"
           y="86.792503" />
        <rect
           y="137.70737"
           x="98.694962"
           height="13.898015"
           width="13.898015"
           id="rect819-2-1"
           style="opacity:1;fill:#ffffff;fill-opacity:1;stroke:none;stroke-width:0.528;stroke-linecap:round;stroke-miterlimit:4;stroke-dasharray:none;stroke-opacity:1" />
        <rect
           style="opacity:1;fill:#ffffff;fill-opacity:1;stroke:none;stroke-width:0.528;stroke-linecap:round;stroke-miterlimit:4;stroke-dasharray:none;stroke-opacity:1"
           id="rect821-6-2"
           width="13.898015"
           height="13.898015"
           x="82.889801"
           y="137.70737" />
        <rect
           y="137.70737"
           x="51.279476"
           height="13.898015"
           width="13.898015"
           id="rect823-5-6"
           style="opacity:1;fill:#ffffff;fill-opacity:1;stroke:none;stroke-width:0.528;stroke-linecap:round;stroke-miterlimit:4;stroke-dasharray:none;stroke-opacity:1" />
        <rect
           style="opacity:1;fill:#ffffff;fill-opacity:1;stroke:none;stroke-width:0.528;stroke-linecap:round;stroke-miterlimit:4;stroke-dasharray:none;stroke-opacity:1"
           id="rect825-8-4"
           width="13.898015"
           height="13.898015"
           x="35.474312"
           y="120.73575" />
        <rect
           style="opacity:1;fill:#ffffff;fill-opacity:1;stroke:none;stroke-width:0.528;stroke-linecap:round;stroke-miterlimit:4;stroke-dasharray:none;stroke-opacity:1"
           id="rect815-79-8"
           width="13.898015"
           height="13.898015"
           x="51.279476"
           y="120.73575" />
        <rect
           style="opacity:1;fill:#ffffff;fill-opacity:1;stroke:none;stroke-width:0.528;stroke-linecap:round;stroke-miterlimit:4;stroke-dasharray:none;stroke-opacity:1"
           id="rect821-04-5"
           width="13.898015"
           height="13.898015"
           x="67.084641"
           y="137.70737" />
        <rect
           style="opacity:1;fill:#ffffff;fill-opacity:1;stroke:none;stroke-width:0.528;stroke-linecap:round;stroke-miterlimit:4;stroke-dasharray:none;stroke-opacity:1"
           id="rect825-0-6"
           width="13.898015"
           height="13.898015"
           x="35.474312"
           y="137.70737" />
      </g>
      <g
         id="text927-2"
         style="font-style:normal;font-variant:normal;font-weight:normal;font-stretch:normal;font-size:4.14711666px;line-height:6.47986937px;font-family:'Nimbus Sans';-inkscape-font-specification:'Nimbus Sans';text-align:start;letter-spacing:0px;word-spacing:0px;writing-mode:lr-tb;text-anchor:start;fill:#000000;fill-opacity:1;stroke:none;stroke-width:0.25919479px;stroke-linecap:butt;stroke-linejoin:miter;stroke-opacity:1"
         transform="scale(0.9796339,1.0207895)"
         aria-label="M-x Erlangen">
        <path
           id="path859"
           style="font-style:normal;font-variant:normal;font-weight:normal;font-stretch:normal;font-size:11.05897713px;font-family:'Source Code Pro';-inkscape-font-specification:'Source Code Pro';fill:#ffffff;fill-opacity:1;stroke-width:0.25919479px"
           d="m 55.978753,169.99977 h 0.8626 v -3.62734 c 0,-0.70778 -0.08847,-1.94638 -0.154826,-2.56569 h 0.02212 l 0.420242,1.41555 1.017425,2.85322 h 0.663539 l 1.039544,-2.85322 0.409182,-1.41555 h 0.03318 c -0.04424,0.61931 -0.154826,1.85791 -0.154826,2.56569 v 3.62734 h 0.884718 v -7.25469 h -1.128015 l -1.028485,3.09652 -0.342828,1.17225 h -0.04424 l -0.353888,-1.17225 -1.017425,-3.09652 h -1.128016 z" />
        <path
           id="path861"
           style="font-style:normal;font-variant:normal;font-weight:normal;font-stretch:normal;font-size:11.05897713px;font-family:'Source Code Pro';-inkscape-font-specification:'Source Code Pro';fill:#ffffff;fill-opacity:1;stroke-width:0.25919479px"
           d="m 62.757889,166.69314 h 4.75536 v -0.68566 h -4.75536 z" />
        <path
           id="path863"
           style="font-style:normal;font-variant:normal;font-weight:normal;font-stretch:normal;font-size:11.05897713px;font-family:'Source Code Pro';-inkscape-font-specification:'Source Code Pro';fill:#ffffff;fill-opacity:1;stroke-width:0.25919479px"
           d="m 69.16102,169.99977 h 0.97319 l 0.884718,-1.2386 c 0.221179,-0.34283 0.442359,-0.65248 0.663538,-0.97319 h 0.04424 c 0.232239,0.30965 0.486595,0.66353 0.707775,0.97319 l 0.940013,1.2386 h 0.995308 l -2.05697,-2.70945 1.913203,-2.66521 H 73.2639 l -0.807305,1.16119 c -0.188003,0.29859 -0.409182,0.63036 -0.608244,0.92895 h -0.04424 c -0.221179,-0.29859 -0.442359,-0.6193 -0.630361,-0.90683 l -0.851542,-1.18331 h -1.006367 l 1.891085,2.5878 z" />
        <path
           id="path865"
           style="font-style:normal;font-variant:normal;font-weight:normal;font-stretch:normal;font-size:11.05897713px;font-family:'Source Code Pro';-inkscape-font-specification:'Source Code Pro';fill:#ffffff;fill-opacity:1;stroke-width:0.25919479px"
           d="m 82.984707,169.99977 h 4.600535 v -0.78519 h -3.671581 v -2.63203 h 3.008042 v -0.78519 h -3.008042 v -2.27815 h 3.560991 v -0.77413 h -4.489945 z" />
        <path
           id="path867"
           style="font-style:normal;font-variant:normal;font-weight:normal;font-stretch:normal;font-size:11.05897713px;font-family:'Source Code Pro';-inkscape-font-specification:'Source Code Pro';fill:#ffffff;fill-opacity:1;stroke-width:0.25919479px"
           d="m 89.973963,169.99977 h 0.906836 v -3.15181 c 0.641421,-1.11695 1.40449,-1.5372 2.211795,-1.5372 0.420241,0 0.619303,0.0553 0.995308,0.18801 l 0.210121,-0.78519 c -0.331769,-0.16588 -0.663539,-0.22118 -1.061662,-0.22118 -0.995308,0 -1.83579,0.54189 -2.399798,1.40449 h -0.03318 l -0.07741,-1.27178 h -0.75201 z" />
        <path
           id="path869"
           style="font-style:normal;font-variant:normal;font-weight:normal;font-stretch:normal;font-size:11.05897713px;font-family:'Source Code Pro';-inkscape-font-specification:'Source Code Pro';fill:#ffffff;fill-opacity:1;stroke-width:0.25919479px"
           d="m 99.495728,170.13248 c 0.586122,0 0.940012,-0.11059 1.437662,-0.32071 l -0.23223,-0.6746 c -0.36495,0.16589 -0.69672,0.2433 -1.00637,0.2433 -0.641421,0 -1.061662,-0.33177 -1.061662,-1.11696 v -6.13773 h -2.820039 v 0.74095 h 1.913203 v 5.33043 c 0,1.27178 0.630361,1.93532 1.769436,1.93532 z" />
        <path
           id="path871"
           style="font-style:normal;font-variant:normal;font-weight:normal;font-stretch:normal;font-size:11.05897713px;font-family:'Source Code Pro';-inkscape-font-specification:'Source Code Pro';fill:#ffffff;fill-opacity:1;stroke-width:0.25919479px"
           d="m 104.3506,170.13248 c 0.76307,0 1.52614,-0.39812 2.12332,-0.8626 h 0.0332 l 0.0774,0.72989 h 0.74096 v -3.29557 c 0,-1.33814 -0.70778,-2.2118 -2.17862,-2.2118 -0.94002,0 -1.84685,0.42024 -2.38874,0.77413 l 0.35389,0.6193 c 0.49765,-0.30965 1.18331,-0.64142 1.88002,-0.64142 1.03955,0 1.40449,0.6193 1.42661,1.3492 -2.7758,0.22118 -3.89276,0.8073 -3.89276,2.01273 0,0.96213 0.81836,1.52614 1.82473,1.52614 z m 0.2433,-0.72989 c -0.6193,0 -1.18331,-0.25436 -1.18331,-0.8626 0,-0.70778 0.70777,-1.1612 3.00804,-1.3492 v 1.41555 c -0.60824,0.50871 -1.21649,0.79625 -1.82473,0.79625 z" />
        <path
           id="path873"
           style="font-style:normal;font-variant:normal;font-weight:normal;font-stretch:normal;font-size:11.05897713px;font-family:'Source Code Pro';-inkscape-font-specification:'Source Code Pro';fill:#ffffff;fill-opacity:1;stroke-width:0.25919479px"
           d="m 109.29395,169.99977 h 0.90683 v -3.74899 c 0.63036,-0.65248 1.06166,-0.97319 1.70308,-0.97319 0.88472,0 1.23861,0.48659 1.23861,1.50402 v 3.21816 h 0.90684 v -3.33981 c 0,-1.41555 -0.58613,-2.16756 -1.85791,-2.16756 -0.84048,0 -1.45979,0.45342 -2.02379,1.0506 h -0.0442 l -0.0774,-0.91789 h -0.75201 z" />
        <path
           id="path875"
           style="font-style:normal;font-variant:normal;font-weight:normal;font-stretch:normal;font-size:11.05897713px;font-family:'Source Code Pro';-inkscape-font-specification:'Source Code Pro';fill:#ffffff;fill-opacity:1;stroke-width:0.25919479px"
           d="m 118.17429,172.47698 c 1.82473,0 2.98592,-0.87366 2.98592,-1.88002 0,-0.90684 -0.66354,-1.26073 -2.04591,-1.26073 h -1.20543 c -0.70777,0 -1.11696,-0.19906 -1.11696,-0.6193 0,-0.25436 0.15483,-0.45342 0.42025,-0.6193 0.29859,0.1327 0.63036,0.19906 0.90683,0.19906 1.16119,0 2.07909,-0.69672 2.07909,-1.84685 0,-0.4313 -0.21012,-0.82942 -0.45342,-1.08378 h 1.39343 v -0.74095 h -2.22285 c -0.23224,-0.0885 -0.4866,-0.13271 -0.79625,-0.13271 -1.13907,0 -2.11226,0.75201 -2.11226,1.92426 0,0.64142 0.29859,1.11696 0.66354,1.39343 v 0.0442 c -0.40919,0.27647 -0.64143,0.66354 -0.64143,1.00637 0,0.45341 0.26542,0.72989 0.55295,0.88471 v 0.0442 c -0.57506,0.33177 -0.88471,0.76307 -0.88471,1.19437 0,0.95107 0.90683,1.49296 2.47721,1.49296 z m -0.0553,-4.78854 c -0.6746,0 -1.2386,-0.49765 -1.2386,-1.27178 0,-0.75201 0.564,-1.26072 1.2386,-1.26072 0.68566,0 1.23861,0.50871 1.23861,1.26072 0,0.77413 -0.55295,1.27178 -1.23861,1.27178 z m 0.12165,4.125 c -1.15013,0 -1.75838,-0.35388 -1.75838,-0.91789 0,-0.30965 0.17695,-0.6193 0.68566,-0.89578 0.23224,0.0663 0.50871,0.0885 0.81836,0.0885 h 1.05061 c 0.81836,0 1.22754,0.14377 1.22754,0.65248 0,0.55295 -0.77413,1.07272 -2.02379,1.07272 z" />
        <path
           id="path877"
           style="font-style:normal;font-variant:normal;font-weight:normal;font-stretch:normal;font-size:11.05897713px;font-family:'Source Code Pro';-inkscape-font-specification:'Source Code Pro';fill:#ffffff;fill-opacity:1;stroke-width:0.25919479px"
           d="m 125.18566,170.13248 c 0.8626,0 1.54826,-0.28753 2.07909,-0.64142 l -0.33177,-0.59719 c -0.4866,0.30965 -0.99531,0.50872 -1.63673,0.50872 -1.11696,0 -1.97956,-0.61931 -2.09015,-1.83579 h 4.23559 c 0.0221,-0.14377 0.0442,-0.34283 0.0442,-0.55295 0,-1.51508 -0.90684,-2.52145 -2.4551,-2.52145 -1.43766,0 -2.74262,1.06166 -2.74262,2.80898 0,1.79155 1.28284,2.8311 2.89745,2.8311 z m -0.13271,-4.92125 c 0.9179,0 1.52614,0.54189 1.60355,1.64779 h -3.42828 c 0.16589,-1.06166 0.94001,-1.64779 1.82473,-1.64779 z" />
        <path
           id="path879"
           style="font-style:normal;font-variant:normal;font-weight:normal;font-stretch:normal;font-size:11.05897713px;font-family:'Source Code Pro';-inkscape-font-specification:'Source Code Pro';fill:#ffffff;fill-opacity:1;stroke-width:0.25919479px"
           d="m 129.20005,169.99977 h 0.90684 v -3.74899 c 0.63036,-0.65248 1.06166,-0.97319 1.70308,-0.97319 0.88472,0 1.2386,0.48659 1.2386,1.50402 v 3.21816 h 0.90684 v -3.33981 c 0,-1.41555 -0.58612,-2.16756 -1.85791,-2.16756 -0.84048,0 -1.45978,0.45342 -2.02379,1.0506 h -0.0442 l -0.0774,-0.91789 h -0.75201 z" />
      </g>
    </g>
  </g>
</svg>
